Apply Functions to All Combinations of List Elements • crossmap
…
future::plan("multisession")
future_xmap_chr(list(1:3, 1:3), ~ paste(.x, "*", .y, "=", .x * .y))
#> [1] "1 * 1 = 1" "2 * 1 = 2" "3 * 1 = 3" "1 * 2 = 2" "2 * 2 = 4" "3 * 2 = 6"
#> [7] "1 * 3 = 3" "2 * 3 = 6" "3 * 3 = 9"

cross_fit() is an easy wrapper for an important use of crossmap, crossing model specifications with different formulas, subsets, and weights.

cross_fit(
  mtcars,
  formulas = list(hp = mpg ~ hp, drat = mpg ~ drat),
  cols     = c(cyl, vs),
  weights  = c(wt, NA)
)
#> # A tibble: 40 × 21
#>    model weights   cyl    vs term      estimate  std.error  statistic    p.value
#>    <chr> <chr>   <dbl> <dbl> <chr>        <dbl>      <dbl>      <dbl>      <dbl>
#>  1 hp    NA          4     0 (Interce…  26      NaN        NaN        NaN       
#>  2 hp    NA          4     0 hp         NA       NA         NA         NA       
#>  3 hp    NA          4     1 (Interce…  36.0      5.52e+ 0   6.52e+ 0   1.85e- 4
#>  4 hp    NA          4     1 hp         -0.113    6.55e- 2  -1.73e+ 0   1.21e- 1
#>  5 hp    NA          6     0 (Interce…  23.2      1.98e-14   1.17e+15   5.43e-16
#>  6 hp    NA          6     0 hp         -0.0200   1.46e-16  -1.37e+14   4.66e-15
#>  7 hp    NA          6     1 (Interce…  24.2      1.41e+ 1   1.72e+ 0   2.28e- 1
#>  8 hp    NA          6     1 hp         -0.0440   1.22e- 1  -3.61e- 1   7.52e- 1
#>  9 hp    NA          8     0 (Interce…  18.1      2.99e+ 0   6.05e+ 0   5.74e- 5
#> 10 hp    NA          8     0 hp         -0.0142   1.39e- 2  -1.02e+ 0   3.26e- 1
#> # ℹ 30 more rows
#> # ℹ 12 more variables: r.squared <dbl>, adj.r.squared <dbl>, sigma <dbl>,
#> #   model.statistic <dbl>, model.p.value <dbl>, df <dbl>, logLik <dbl>,
#> #   AIC <dbl>, BIC <dbl>, deviance <dbl>, df.residual <int>, nobs <int>
…
