…
cross_join(list(fruits, desserts))
#> # A tibble: 9 × 4
#>   fruit      color  dessert  makes
#>   <chr>      <chr>  <chr>    <dbl>
#> 1 apple      red    cupcake      8
#> 2 apple      red    muffin       6
#> 3 apple      red    streudel     1
#> 4 banana     yellow cupcake      8
#> 5 banana     yellow muffin       6
#> 6 banana     yellow streudel     1
#> 7 cantaloupe orange cupcake      8
#> 8 cantaloupe orange muffin       6
#> 9 cantaloupe orange streudel     1
cross_join(rep(list(fruits), 3))
#> # A tibble: 27 × 6
#>    fruit.1 color.1 fruit.2    color.2 fruit.3    color.3
#>    <chr>   <chr>   <chr>      <chr>   <chr>      <chr>  
#>  1 apple   red     apple      red     apple      red    
#>  2 apple   red     apple      red     banana     yellow 
#>  3 apple   red     apple      red     cantaloupe orange 
#>  4 apple   red     banana     yellow  apple      red    
#>  5 apple   red     banana     yellow  banana     yellow 
#>  6 apple   red     banana     yellow  cantaloupe orange 
#>  7 apple   red     cantaloupe orange  apple      red    
#>  8 apple   red     cantaloupe orange  banana     yellow 
#>  9 apple   red     cantaloupe orange  cantaloupe orange 
#> 10 banana  yellow  apple      red     apple      red    
#> # ℹ 17 more rows
```
