…
#> 11 mpg ~ …     4     0 (Int…  26      NaN        NaN        NaN           0     
#> 12 mpg ~ …     4     0 hp     NA       NA         NA         NA           0     
#> 13 mpg ~ …     4     1 (Int…  36.0      5.52e+ 0   6.52e+ 0   1.85e- 4    0.273 
#> 14 mpg ~ …     4     1 hp     -0.113    6.55e- 2  -1.73e+ 0   1.21e- 1    0.273 
#> 15 mpg ~ …     6     0 (Int…  23.2      1.98e-14   1.17e+15   5.43e-16    1     
#> 16 mpg ~ …     6     0 hp     -0.0200   1.46e-16  -1.37e+14   4.66e-15    1     
#> 17 mpg ~ …     6     1 (Int…  24.2      1.41e+ 1   1.72e+ 0   2.28e- 1    0.0613
#> 18 mpg ~ …     6     1 hp     -0.0440   1.22e- 1  -3.61e- 1   7.52e- 1    0.0613
#> 19 mpg ~ …     8     0 (Int…  18.1      2.99e+ 0   6.05e+ 0   5.74e- 5    0.0804
#> 20 mpg ~ …     8     0 hp     -0.0142   1.39e- 2  -1.02e+ 0   3.26e- 1    0.0804
#> # ℹ 11 more variables: adj.r.squared <dbl>, sigma <dbl>, model.statistic <dbl>,
#> #   model.p.value <dbl>, df <dbl>, logLik <dbl>, AIC <dbl>, BIC <dbl>,
#> #   deviance <dbl>, df.residual <int>, nobs <int>
cross_fit(mtcars, list(mpg ~ wt, mpg ~ hp), dplyr::starts_with("c"))
#> # A tibble: 36 × 20
#>    model      cyl  carb term    estimate std.error statistic   p.value r.squared
#>    <chr>    <dbl> <dbl> <chr>      <dbl>     <dbl>     <dbl>     <dbl>     <dbl>
#>  1 mpg ~ wt     4     1 (Inter…    62.0      17.2       3.60   3.67e-2     0.574
#>  2 mpg ~ wt     4     1 wt        -16.0       7.95     -2.01   1.38e-1     0.574
#>  3 mpg ~ wt     4     2 (Inter…    36.8       2.83     13.0    2.01e-4     0.802
#>  4 mpg ~ wt     4     2 wt         -4.56      1.13     -4.02   1.59e-2     0.802
#>  5 mpg ~ wt     6     1 (Inter…    64.7     NaN       NaN    NaN           1    
#>  6 mpg ~ wt     6     1 wt        -13.5     NaN       NaN    NaN           1    
#>  7 mpg ~ wt     6     4 (Inter…    30.2       3.61      8.37   1.40e-2     0.810
#>  8 mpg ~ wt     6     4 wt         -3.38      1.16     -2.92   1.00e-1     0.810
#>  9 mpg ~ wt     6     6 (Inter…    19.7     NaN       NaN    NaN           0    
#> 10 mpg ~ wt     6     6 wt         NA        NA        NA     NA           0    
#> # ℹ 26 more rows
#> # ℹ 11 more variables: adj.r.squared <dbl>, sigma <dbl>, model.statistic <dbl>,
#> #   model.p.value <dbl>, df <dbl>, logLik <dbl>, AIC <dbl>, BIC <dbl>,
#> #   deviance <dbl>, df.residual <int>, nobs <int>
…
